{
    "app-id" : "org.codeberg.som.Stirrups",
    "runtime" : "org.gnome.Platform",
    "runtime-version" : "40",
    "sdk" : "org.gnome.Sdk",
    "command" : "org.codeberg.som.Stirrups",
    "finish-args" : [
        "--device=dri",
        "--share=network",
        "--share=ipc",
        "--socket=fallback-x11",
        "--socket=wayland",
        "--filesystem=xdg-data/icons:ro"
    ],
    "cleanup" : [
        "/include",
        "/lib/pkgconfig",
        "/share/gir-1.0",
        "/share/gtk-doc",
        "/share/pkgconfig"
    ],
    "modules" : [
        {
            "name" : "stirrups",
            "builddir" : true,
            "buildsystem" : "meson",
            "sources" : [
                {
                    "type" : "dir",
                    "path" : "./"
                }
            ]
        }
    ]
}
