{
    "command": "gjs --include-path=. %s",
    "demos": [
        {
            "title": "Hello World",
            "keywords": [],
            "name": "hello_world",
            "entryPoint": "hello_world.js"
        },
        {
            "title": "Application Class",
            "keywords": ["Action", "Builder", "Menubar", "PopoverMenuBar", "Settings", "Statusbar", "template", "TextView"],
            "name": "application",
            "entryPoint": "application.js",
            "command": "env GSETTINGS_SCHEMA_DIR=. gjs --include-path=. %s"
        },
        {
            "title": "Assistant",
            "keywords": ["Assistant", "ProgressBar"],
            "name": "assistant",
            "entryPoint": "assistant.js"
        },
        {
            "title": "Benchmark",
            "keywords": ["FrameClock"],
            "children": [
                {
                    "title": "Fishbowl",
                    "keywords": ["template", "TickCallback", "Widget"],
                    "name": "fishbowl",
                    "entryPoint": "fishbowl.js"
                },
                {
                    "title": "Frames",
                    "keywords": ["Builder", "RGBA", "TickCallback", "Widget"],
                    "name": "frames",
                    "entryPoint": "frames.js"
                },
                {
                    "title": "Scrolling",
                    "keywords": ["ScrolledWindow", "template", "TickCallback"],
                    "name": "iconscroll",
                    "entryPoint": "iconscroll.js"
                },
                {
                    "title": "Themes",
                    "keywords": ["Builder", "Settings"],
                    "name": "themes",
                    "entryPoint": "themes.js"
                }
            ]
        },
        {
            "title": "Builder",
            "keywords": ["Builder", "ListStore", "Menu", "PopoverMenuBar", "ShortcutController", "StatusBar", "TreeView"],
            "name": "builder",
            "entryPoint": "builder.js"
        },
        {
            "title": "Clipboard",
            "keywords": ["BinLayout", "Clipboard", "ContentProvider", "DragIcon", "DragSource", "DropTarget", "Entry", "GestureClick", "IconPaintable", "IconTheme", "Image", "MessageDialog", "Widget"],
            "name": "clipboard",
            "entryPoint": "clipboard.js"
        },
        {
            "title": "Combo Boxes",
            "keywords": ["CellRenderer", "ComboBox", "ComboBoxText", "Entry", "ListStore", "TreeModel", "TreeStore"],
            "name": "combobox",
            "entryPoint": "combobox.js"
        },
        {
            "title": "Constraints",
            "keywords": ["ConstraintLayout", "LayoutManager"],
            "children": [
                {
                    "title": "Simple Constraints",
                    "keywords": ["ConstraintGuide", "Widget"],
                    "name": "constraints",
                    "entryPoint": "constraints.js"
                },
                {
                    "title": "Interactive Constraints",
                    "keywords": ["ConstraintGuide", "GestureDrag", "Widget"],
                    "name": "constraints_interactive",
                    "entryPoint": "constraints_interactive.js"
                },
                {
                    "title": "VFL",
                    "keywords": ["Widget"],
                    "name": "constraints_vfl",
                    "entryPoint": "constraints_vfl.js"
                },
                {
                    "title": "Builder",
                    "keywords": ["Builder", "ConstraintGuide", "Widget"],
                    "name": "constraints_builder",
                    "entryPoint": "constraints_builder.js"
                }
            ]
        },
        {
            "title": "Cursors",
            "keywords": ["Cursor"],
            "name": "cursors",
            "entryPoint": "cursors.js"
        },
        {
            "title": "Dialogs",
            "keywords": ["Dialog", "Entry", "Grid", "MessageDialog", "mnemonic"],
            "name": "dialog",
            "entryPoint": "dialog.js"
        },
        {
            "title": "Entry",
            "keywords": [],
            "children": [
                {
                    "title": "Completion",
                    "keywords": ["Entry", "EntryCompletion", "ListStore"],
                    "name": "entry_completion",
                    "entryPoint": "entry_completion.js"
                },
                {
                    "title": "Undo and Redo",
                    "keywords": ["Entry", "Editable"],
                    "name": "entry_undo",
                    "entryPoint": "entry_undo.js"
                },
                {
                    "title": "Password Entry",
                    "keywords": ["Button", "PasswordEntry"],
                    "name": "password_entry",
                    "entryPoint": "password_entry.js"
                },
                {
                    "title": "Search Entry",
                    "keywords": ["Action", "Entry", "Menu", "Stack"],
                    "name": "search_entry",
                    "entryPoint": "search_entry.js"
                },
                {
                    "title": "Type to Search",
                    "keywords": ["SearchBar", "SearchEntry", "ToggleButton"],
                    "name": "search_entry2",
                    "entryPoint": "search_entry2.js"
                },
                {
                    "title": "Tagged Entry",
                    "keywords": ["CssProvider", "Editable", "Spinner", "Text", "Widget"],
                    "name": "tagged_entry",
                    "entryPoint": "tagged_entry.js"
                }
            ]
        },
        {
            "title": "Error States",
            "keywords": ["Builder", "BuilderScope", "Entry", "Label", "mnemonic", "Scale", "Switch"],
            "name": "errorstates",
            "entryPoint": "errorstates.js"
        },
        {
            "title": "Expander",
            "keywords": ["Expander, MessageDialog, ScrolledWindow, TextView"],
            "name": "expander",
            "entryPoint": "expander.js"
        },
        {
            "title": "Flow Box",
            "keywords": ["DrawingArea", "FlowBox", "RGBA", "ScrolledWindow"],
            "name": "flowbox",
            "entryPoint": "flowbox.js"
        },
        {
            "title": "Header Bar",
            "keywords": ["Headerbar"],
            "name": "headerbar",
            "entryPoint": "headerbar.js"
        },
        {
            "title": "Icon View",
            "keywords": ["IconView", "ListStore", "TreeModel"],
            "children": [
                {
                    "title": "Icon View Basics",
                    "keywords": [],
                    "name": "iconview",
                    "entryPoint": "iconview.js"
                },
                {
                    "title": "Editing and Drag-and-Drop",
                    "keywords": ["CellLayout", "CellRendererPixbuf", "CellRendererText"],
                    "name": "iconview_edit",
                    "entryPoint": "iconview_edit.js"
                }
            ]
        },
        {
            "title": "Info Bars",
            "keywords": ["InfoBar", "MessageDialog", "ToggleButton"],
            "name": "infobar",
            "entryPoint": "infobar.js"
        },
        {
            "title": "Layout Manager",
            "keywords": ["LayoutManager"],
            "children": [
                {
                    "title": "Transition",
                    "keywords": ["GestureClick", "LayoutChild", "RGBA", "TickCallback", "Widget"],
                    "name": "layoutmanager",
                    "entryPoint": "layoutmanager.js"
                },
                {
                    "title": "Transformation",
                    "keywords": ["Image", "Shortcut", "ShortcutController", "TickCallback", "Transform", "tweener", "Widget"],
                    "name": "layoutmanager2",
                    "entryPoint": "layoutmanager2.js"
                }
            ]
        },
        {
            "title": "Links",
            "keywords": ["Label", "markup", "MessageDialog"],
            "name": "links",
            "entryPoint": "links.js"
        },
        {
            "title": "List Box",
            "keywords": ["ListBox"],
            "children": [
                {
                    "title": "Complex",
                    "keywords": ["ListBoxRow", "template"],
                    "name": "listbox",
                    "entryPoint": "listbox.js"
                },
                {
                    "title": "Controls",
                    "keywords": ["Actionable", "Builder"],
                    "name": "listbox_controls",
                    "entryPoint": "listbox_controls.js"
                }
            ]
        },
        {
            "title": "Lists",
            "keywords": [],
            "children": [
                {
                    "title": "Application Launcher",
                    "keywords": ["AppLaunchContext", "ListView", "MessageDialog", "SignalListItemFactory"],
                    "name": "listview_applauncher",
                    "entryPoint": "listview_applauncher.js"
                },
                {
                    "title": "Colors",
                    "keywords": ["ClosureExpression", "ConstantExpression", "CssProvider", "DropDown", "GridView", "MultiSelection", "MultiSorter", "NoSelection", "NumericSorter", "Overlay", "Paintable", "ProgressBar", "PropertyExpression", "RGBA", "Revealer", "SelectionFilterModel", "SignalListItemFactory", "SortListModel", "StringList", "StringSorter"],
                    "name": "listview_colors",
                    "entryPoint": "listview_colors.js"
                },
                {
                    "title": "File Browser",
                    "keywords": ["Builder", "BuilderListItemFactory", "BuilderScope", "CssProvider", "DirectoryList", "GridView", "ListItem"],
                    "name": "listview_filebrowser",
                    "entryPoint": "listview_filebrowser.js"
                },
                {
                    "title": "Words",
                    "keywords": ["BuilderListItemFactory", "FileChooserNative", "FilterListModel", "ListView", "NoSelection", "Overlay", "ProgressBar", "PropertyExpression", "SearchEntry", "StringFilter", "StringList"],
                    "name": "listview_words",
                    "entryPoint": "listview_words.js"
                }
            ]
        },
        {
            "title": "Menu",
            "keywords": ["PopoverMenu", "Snapshot", "template", "Widget"],
            "name": "menu",
            "entryPoint": "menu.js"
        },
        {
            "title": "OpenGL",
            "keywords": [],
            /* Updwn library */
            "command": "env GSK_RENDERER=opengl env LD_LIBRARY_PATH=\"${libdir}\":$LD_LIBRARY_PATH env GI_TYPELIB_PATH=\"${libdir}/girepository-1.0\":$GI_TYPELIB_PATH gjs --include-path=. %s",
            "children": [
                {
                    "title": "OpenGL Area",
                    "keywords": ["GLArea"],
                    "name": "glarea",
                    "entryPoint": "glarea.js"
                }
            ]
        },
        {
            "title": "Overlay",
            "keywords": [],
            "children": [
                {
                    "title": "Interactive Overlay",
                    "keywords": ["Overlay"],
                    "name": "overlay",
                    "entryPoint": "overlay.js"
                },
                {
                    "title": "Decorative Overlay",
                    "keywords": ["Overlay", "Scale", "TextView"],
                    "name": "overlay_decorative",
                    "entryPoint": "overlay_decorative.js"
                },
                {
                    "title": "Transparency",
                    "keywords": ["Snapshot", "Widget"],
                    "name": "transparent",
                    "entryPoint": "transparent.js"
                }
            ]
        },
        {
            "title": "Paintable",
            "keywords": ["Paintable", "Snapshot"],
            "children": [
                {
                    "title": "Simple Paintable",
                    "keywords": ["cairo", "Image"],
                    "name": "paintable",
                    "entryPoint": "paintable.js"
                },
                {
                    "title": "Animated Paintable",
                    "keywords": ["cairo", "Image"],
                    "name": "paintable_animated",
                    "entryPoint": "paintable_animated.js"
                },
                {
                    "title": "Emblems",
                    "keywords": ["cairo", "IconPaintable", "IconTheme", "Image"],
                    "name": "paintable_emblem",
                    "entryPoint": "paintable_emblem.js"
                },
                {
                    "title": "Media Stream",
                    "keywords": ["cairo", "MediaStream", "Video"],
                    "name": "paintable_mediastream",
                    "entryPoint": "paintable_mediastream.js"
                },
                {
                    "title": "SVG",
                    "keywords": ["cairo", "FileChooserNative", "Picture", "rsvg"],
                    "name": "paintable_svg",
                    "entryPoint": "paintable_svg.js"
                }
            ]
        },
        {
            "title": "Paned Widgets",
            "keywords": ["Paned"],
            "name": "panes",
            "entryPoint": "panes.js"
        },
        {
            "title": "Pango",
            "keywords": ["pango"],
            "children": [
                {
                    "title": "Font Rendering",
                    "keywords": ["Builder", "cairo"],
                    "name": "fontrendering",
                    "entryPoint": "fontrendering.js"
                },
                {
                    "title": "Text Mask",
                    "keywords": ["cairo", "DrawingArea"],
                    "name": "textmask",
                    "entryPoint": "textmask.js"
                }
            ]
        },
        {
            "title": "Peg Solitaire",
            "keywords": ["DragSource", "DropTarget", "game", "Grid", "Image", "MediaFile", "MessageDialog", "Paintable", "Settings"],
            "name": "peg_solitaire",
            "entryPoint": "peg_solitaire.js"
        },
        {
            "title": "Pickers",
            "keywords": ["AppChooserButton", "ApplicationChooser", "ColorButton", "ColorChooser", "FontButton", "FontChooser", "Grid", "RGBA"],
            "name": "pickers",
            "entryPoint": "pickers.js"
        },
        {
            "title": "Printing",
            "keywords": [],
            "children": [
                {
                    "title": "Printing",
                    "keywords": ["cairo", "MessageDialog", "pango", "PrintContext", "PrintOperation", "PrintSettings", "TextView"],
                    "name": "printing",
                    "entryPoint": "printing.js"
                },
                {
                    "title": "Page Setup",
                    "keywords": ["PageSetupUnixDialog"],
                    "name": "pagesetup",
                    "entryPoint": "pagesetup.js"
                }
            ]
        },
        {
            "title": "Revealer",
            "keywords": ["Revealer"],
            "name": "revealer",
            "entryPoint": "revealer.js"
        },
        {
            "title": "Scales",
            "keywords": ["Scale"],
            "name": "scale",
            "entryPoint": "scale.js"
        },
        {
            "title": "Shortcuts",
            "keywords": ["Action", "InfoBar", "Shortcut", "ShortcutController", "template"],
            "name": "shortcut_triggers",
            "entryPoint": "shortcut_triggers.js"
        },
        {
            "title": "Shortcuts Window",
            "keywords": ["Builer", "ShortcutsWindow"],
            "name": "shortcuts",
            "entryPoint": "shortcuts.js"
        },
        {
            "title": "Sliding Puzzle",
            "keywords": ["AlternativeTrigger", "AspectFrame", "CallbackAction", "game", "GestureClick", "Grid", "Image", "KeyvalTrigger", "MediaFile", "MenuButton", "Paintable", "Picture", "Popover", "ShortcutController", "Texture"],
            "name": "sliding_puzzle",
            "entryPoint": "sliding_puzzle.js"
        },
        {
            "title": "Size Groups",
            "keywords": ["checkButton", "ComboBoxText", "Grid", "Label", "mnemonic", "SizeGroup"],
            "name": "sizegroup",
            "entryPoint": "sizegroup.js"
        },
        {
            "title": "Spin Buttons",
            "keywords": ["Builder", "BuilderScope", "Entry", "SpinButton"],
            "name": "spinbutton",
            "entryPoint": "spinbutton.js"
        },
        {
            "title": "Spinner",
            "keywords": ["Spinner", "Dialog"],
            "name": "spinner",
            "entryPoint": "spinner.js"
        },
        {
            "title": "Stack",
            "keywords": ["Stack"],
            "name": "stack",
            "entryPoint": "stack.js"
        },
        {
            "title": "Stack Sidebar",
            "keywords": ["Stack", "StackSidebar"],
            "name": "sidebar",
            "entryPoint": "sidebar.js"
        },
        {
            "title": "Text View",
            "keywords": ["TextBuffer", "TextView"],
            "children": [
                {
                    "title": "Hypertext",
                    "keywords": ["EventControllerKey", "EventControllerMotion", "GestureClick", "TextTag"],
                    "name": "hypertext",
                    "entryPoint": "hypertext.js"
                },
                {
                    "title": "Markup",
                    "keywords": ["CheckButton", "Stack"],
                    "name": "markup",
                    "entryPoint": "markup.js"
                },
                {
                    "title": "Tabs",
                    "keywords": ["TabArray"],
                    "name": "tabs",
                    "entryPoint": "tabs.js"
                },
                {
                    "title": "Undo and Redo",
                    "keywords": [],
                    "name": "textundo",
                    "entryPoint": "textundo.js"
                }
            ]
        },
        {
            "title": "Theming",
            "keywords": [],
            "children": [
                {
                    "title": "CSS Accordion",
                    "keywords": ["CssProvider"],
                    "name": "css_accordion",
                    "entryPoint": "css_accordion.js"
                },
                {
                    "title": "CSS Basics",
                    "keywords": ["CssProvider", "TextView"],
                    "name": "css_basics",
                    "entryPoint": "css_basics.js"
                },
                {
                    "title": "CSS Blend Modes",
                    "keywords": ["Builder", "CssProvider", "ListBox", "Resource"],
                    "name": "css_blendmodes",
                    "entryPoint": "css_blendmodes.js"
                },
                {
                    "title": "Multiple Backgrounds",
                    "keywords": ["CssProvider", "DrawingArea", "Overlay", "Paned", "Resource", "TextView"],
                    "name": "css_multiplebgs",
                    "entryPoint": "css_multiplebgs.js"
                },
                {
                    "title": "Animated Backgrounds",
                    "keywords": ["CssProvider", "Paned", "Resource", "TextView"],
                    "name": "css_pixbufs",
                    "entryPoint": "css_pixbufs.js"
                },
                {
                    "title": "Shadows",
                    "keywords": ["CssProvider", "Paned", "Resource", "TextView"],
                    "name": "css_shadows",
                    "entryPoint": "css_shadows.js"
                },
                {
                    "title": "Style Classes",
                    "keywords": ["Builder"],
                    "name": "theming_style_classes",
                    "entryPoint": "theming_style_classes.js"
                }
            ]
        },
        {
            "title": "Tree View",
            "keywords": ["TreeModel", "TreeView", "TreeViewColumn"],
            "children": [
                {
                    "title": "Editable Cells",
                    "keywords": ["CellRendererCombo", "CellRendererProgress", "CellRendererText", "ListStore"],
                    "name": "editable_cells",
                    "entryPoint": "editable_cells.js"
                },
                {
                    "title": "Filter Model",
                    "keywords": ["Builder", "CellRendererPixbuf", "CellRendererText", "ListStore", "TreeModelFilter"],
                    "name": "filtermodel",
                    "entryPoint": "filtermodel.js"
                },
                {
                    "title": "List Store",
                    "keywords": ["CellRendererPixbuf", "CellRendererSpinner", "CellRendererText", "CellRendererToggle", "ListStore", "ScrolledWindow"],
                    "name": "list_store",
                    "entryPoint": "list_store.js"
                },
                {
                    "title": "Tree Store",
                    "keywords": ["CellRendererText", "CellRendererToggle", "ScrolledWindow", "TreeStore"],
                    "name": "tree_store",
                    "entryPoint": "tree_store.js"
                }
            ]
        },
        {
            "title": "Video Player",
            "keywords": ["FileChooserNative", "Shortcut", "ShortcutController", "Video"],
            "name": "video_player",
            "entryPoint": "video_player.js"
        }
    ]
}
