{
    "command": "python %s",
    "demos": [
        {
            "title": "Hello World",
            "keywords": [],
            "name": "hello_world",
            "entryPoint": "hello_world.py"
        }
    ]
}
